<?xml version="1.0" encoding="UTF-8" standalone="no"?>
<svg width="58px" height="44px" viewBox="0 0 58 44" version="1.1" xmlns="http://www.w3.org/2000/svg" xmlns:xlink="http://www.w3.org/1999/xlink">
    <!-- Generator: Sketch 45.2 (43514) - http://www.bohemiancoding.com/sketch -->
    <title>folder</title>
    <desc>Created with Sketch.</desc>
    <defs></defs>
    <g id="Symbols" stroke="none" stroke-width="1" fill="none" fill-rule="evenodd">
        <g id="Projects-/-Grid-/-Folder-and-Name" transform="translate(-79.000000, -24.000000)" fill="#444D66">
            <g id="Group-2" transform="translate(49.000000, 24.000000)">
                <path d="M32,16 L32,3.98360622 C32,2.91061115 32.8880296,2 33.9834697,2 L54.8000488,2 L58.7199707,10 L83.9940343,10 C85.0923446,10 86,10.896211 86,12.0017433 L86,16 L32,16 L32,16 Z M32,18 L32,40.0163938 C32,41.1119092 32.8922172,42 33.9859309,42 L84.0140691,42 C85.1108685,42 86,41.1107383 86,39.9982567 L86,18 L32,18 L32,18 Z M60,8 L56,0 L34.0055203,0 C31.7933325,0 30,1.7793479 30,3.98231 L30,40.01769 C30,42.2170591 31.7994254,44 33.9865749,44 L84.0134251,44 C86.2151496,44 88,42.2147544 88,40.0098214 L88,11.9901786 C88,9.7864638 86.2058797,8 83.9882827,8 L60,8 L60,8 Z" id="folder"></path>
            </g>
        </g>
    </g>
</svg>