<?xml version="1.0" encoding="UTF-8" standalone="no"?>
<svg width="13px" height="17px" viewBox="0 0 13 17" version="1.1" xmlns="http://www.w3.org/2000/svg" xmlns:xlink="http://www.w3.org/1999/xlink">
    <!-- Generator: Sketch 48.2 (47327) - http://www.bohemiancoding.com/sketch -->
    <title>reports-export-excel</title>
    <desc>Created with Sketch.</desc>
    <defs></defs>
    <g id="Table-/-Data-/-Cell-/-Actions" stroke="none" stroke-width="1" fill="none" fill-rule="evenodd" transform="translate(-16.000000, -24.000000)">
        <g id="reports-export-excel" transform="translate(16.000000, 24.000000)">
            <path d="M9.00619624,0.269064861 L9.00619624,4.08834125 L12.7120352,4.08834125 C12.6463285,3.89195903 12.5740522,3.7531392 12.4952042,3.6718776 L9.41029038,0.49253316 C9.33144235,0.411271554 9.19674565,0.336782866 9.00619624,0.269064861 Z" id="Path" fill="#464F69"></path>
            <path d="M12.7908828,16.9023295 L12.7908828,5.38852044 L8.69080569,5.38852044 C8.42797892,5.38852044 8.20457951,5.29371666 8.02060077,5.10410624 C7.83662203,4.91449583 7.74463404,4.68425806 7.74463404,4.41338604 L7.74463404,0.187803661 L0.175260831,0.187803661 L0.175260831,16.9023295 L12.7908828,16.9023295 Z" id="Path" fill="#464F69"></path>
            <path d="M3.81210812,13.4130639 L5.72416333,10.538449 L3.86138789,7.77556818 L3.19118297,7.77556818 L3.19118297,6.68869964 L6.04940983,6.68869964 L6.04940983,7.77556818 L5.30035727,7.77556818 L6.34508847,9.39063453 C6.41736583,9.47189613 6.47321569,9.54977067 6.5126397,9.62426047 C6.53892238,9.66489128 6.55534881,9.69874977 6.56191948,9.72583697 L6.58163139,9.72583697 L6.60134329,9.69536402 C6.6210553,9.66827682 6.65062287,9.62256785 6.69004689,9.55823575 C6.7294709,9.49390365 6.76232376,9.43803713 6.78860643,9.39063453 L7.80376977,7.77556818 L7.07442912,7.77556818 L7.07442912,6.68869964 L9.82424048,6.68869964 L9.82424048,7.77556818 L9.16389152,7.77556818 L7.24198035,10.6400255 L9.13432365,13.4130639 L9.80452857,13.4130639 L9.80452857,14.4897748 L6.93644575,14.4897748 L6.93644575,13.4130639 L7.68549831,13.4130639 L6.63091116,11.7776823 C6.61119915,11.7505951 6.5898448,11.7218153 6.56684745,11.6913422 C6.54385011,11.6608691 6.5241384,11.6337823 6.50771172,11.610081 C6.49128505,11.5863797 6.47650127,11.5609859 6.46335993,11.5338987 C6.43707725,11.4932679 6.42065082,11.4594094 6.41408016,11.4323222 L6.39436825,11.4323222 C6.38779758,11.4323222 6.37629908,11.4458656 6.3598724,11.4729528 C6.34344573,11.50004 6.31880609,11.5457489 6.28595274,11.610081 C6.2530994,11.6744131 6.22024654,11.7302797 6.1873932,11.7776823 L5.17222986,13.4130639 L5.91142647,13.4130639 L5.91142647,14.4897748 L3.1419032,14.4897748 L3.1419032,13.4130639 L3.81210812,13.4130639 Z" id="" fill="#FFFFFF"></path>
        </g>
    </g>
</svg>