<?xml version="1.0" encoding="UTF-8" standalone="no"?>
<svg width="15px" height="15px" viewBox="0 0 15 15" version="1.1" xmlns="http://www.w3.org/2000/svg" xmlns:xlink="http://www.w3.org/1999/xlink">
    <!-- Generator: Sketch 48.2 (47327) - http://www.bohemiancoding.com/sketch -->
    <title>reports-nav-icon</title>
    <desc>Created with Sketch.</desc>
    <defs></defs>
    <g id="Desktop-/-User-Utility-Nav-with-Reports" stroke="none" stroke-width="1" fill="none" fill-rule="evenodd" transform="translate(-1011.000000, -18.000000)">
        <g id="Utility-Header" fill="#D9D9D9">
            <g id="Group-4-Copy" transform="translate(829.000000, 0.000000)">
                <g id="Group-6-Copy-2" transform="translate(165.000000, 0.000000)">
                    <g id="Group-13" transform="translate(17.000000, 15.000000)">
                        <path d="M13.3333333,3 L1.66666667,3 C0.75,3 0,3.75 0,4.66666667 L0,16.3333333 C0,17.25 0.75,18 1.66666667,18 L13.3333333,18 C14.25,18 15,17.25 15,16.3333333 L15,4.66666667 C15,3.75 14.25,3 13.3333333,3 L13.3333333,3 Z M13.3333333,9 L8.33333333,14.6666667 L5,11.3333333 L1.66666667,14.6666667 L1.66666667,12.1666667 L5,8.83333333 L8.33333333,12.1666667 L13.3333333,6.5 L13.3333333,9 L13.3333333,9 Z" id="reports-nav-icon"></path>
                    </g>
                </g>
            </g>
        </g>
    </g>
</svg>