<?xml version="1.0" encoding="UTF-8" standalone="no"?>
<svg width="286px" height="234px" viewBox="0 0 286 234" version="1.1" xmlns="http://www.w3.org/2000/svg" xmlns:xlink="http://www.w3.org/1999/xlink">
    <!-- Generator: Sketch 48.2 (47327) - http://www.bohemiancoding.com/sketch -->
    <title>summary</title>
    <desc>Created with Sketch.</desc>
    <defs></defs>
    <g id="Artboard-8" stroke="none" stroke-width="1" fill="none" fill-rule="evenodd" transform="translate(-956.000000, -1333.000000)">
        <g id="summary" transform="translate(956.000000, 1333.000000)">
            <rect id="Rectangle" fill="#464F69" x="0" y="0" width="286" height="234"></rect>
            <g id="Group-2-Copy-2" transform="translate(8.000000, 40.000000)">
                <path d="M230,0 L270,0 L270,26 L230,26 L230,0 Z M184,0 L224,0 L224,26 L184,26 L184,0 Z M138,0 L178,0 L178,26 L138,26 L138,0 Z M92,0 L132,0 L132,26 L92,26 L92,0 Z M46,0 L86,0 L86,26 L46,26 L46,0 Z M230,32 L270,32 L270,58 L230,58 L230,32 Z M184,32 L224,32 L224,58 L184,58 L184,32 Z M138,32 L178,32 L178,58 L138,58 L138,32 Z M92,32 L132,32 L132,58 L92,58 L92,32 Z M46,32 L86,32 L86,58 L46,58 L46,32 Z M230,96 L270,96 L270,122 L230,122 L230,96 Z M184,96 L224,96 L224,122 L184,122 L184,96 Z M138,96 L178,96 L178,122 L138,122 L138,96 Z M92,96 L132,96 L132,122 L92,122 L92,96 Z M46,96 L86,96 L86,122 L46,122 L46,96 Z M230,128 L270,128 L270,154 L230,154 L230,128 Z M184,128 L224,128 L224,154 L184,154 L184,128 Z M138,128 L178,128 L178,154 L138,154 L138,128 Z M92,128 L132,128 L132,154 L92,154 L92,128 Z M46,128 L86,128 L86,154 L46,154 L46,128 Z" id="Combined-Shape" fill="#FFFFFF"></path>
                <path d="M230,160 L270,160 L270,186 L230,186 L230,160 Z M184,160 L224,160 L224,186 L184,186 L184,160 Z M138,160 L178,160 L178,186 L138,186 L138,160 Z M92,160 L132,160 L132,186 L92,186 L92,160 Z M46,160 L86,160 L86,186 L46,186 L46,160 Z" id="Combined-Shape" fill="#D9D9D9"></path>
                <path d="M0,0 L40,0 L40,26 L0,26 L0,0 Z M0,32 L40,32 L40,58 L0,58 L0,32 Z M0,64 L40,64 L40,90 L0,90 L0,64 Z M0,96 L40,96 L40,122 L0,122 L0,96 Z M0,128 L40,128 L40,154 L0,154 L0,128 Z M0,160 L40,160 L40,186 L0,186 L0,160 Z" id="Combined-Shape" fill="#D9D9D9"></path>
                <path d="M230,64 L270,64 L270,90 L230,90 L230,64 Z M184,64 L224,64 L224,90 L184,90 L184,64 Z M138,64 L178,64 L178,90 L138,90 L138,64 Z M92,64 L132,64 L132,90 L92,90 L92,64 Z M46,64 L86,64 L86,90 L46,90 L46,64 Z" id="Combined-Shape" fill="#D9D9D9"></path>
            </g>
        </g>
    </g>
</svg>